FullAdder/simulation/qsim/FullAdder.msim.vcd
$comment
	File created using the following command:
		vcd file FullAdder.msim.vcd -direction
$end
$date
	Wed May 13 14:40:02 2020
$end
$version
	ModelSim Version 10.5b
$end
$timescale
	1ps
$end

$scope module fulladder_vhd_vec_tst $end
$var wire 1 ! A $end
$var wire 1 " B $end
$var wire 1 # CIN $end
$var wire 1 $ COUT $end
$var wire 1 % S $end

$scope module i1 $end
$var wire 1 & gnd $end
$var wire 1 ' vcc $end
$var wire 1 ( unknown $end
$var wire 1 ) devoe $end
$var wire 1 * devclrn $end
$var wire 1 + devpor $end
$var wire 1 , ww_devoe $end
$var wire 1 - ww_devclrn $end
$var wire 1 . ww_devpor $end
$var wire 1 / ww_A $end
$var wire 1 0 ww_B $end
$var wire 1 1 ww_CIN $end
$var wire 1 2 ww_S $end
$var wire 1 3 ww_COUT $end
$var wire 1 4 \S~output_o\ $end
$var wire 1 5 \COUT~output_o\ $end
$var wire 1 6 \A~input_o\ $end
$var wire 1 7 \B~input_o\ $end
$var wire 1 8 \CIN~input_o\ $end
$var wire 1 9 \S~0_combout\ $end
$var wire 1 : \COUT~0_combout\ $end
$upscope $end
$upscope $end
$enddefinitions $end
#0
$dumpvars
0!
0"
0#
0$
0%
0&
1'
x(
1)
1*
1+
1,
1-
1.
0/
00
01
02
03
04
05
06
07
08
09
0:
$end
#25000
1#
11
18
19
14
12
1%
#50000
0#
1"
01
10
17
08
#75000
1#
11
18
09
1:
15
04
13
02
1$
0%
#100000
0#
0"
1!
01
00
1/
16
07
08
19
0:
05
14
03
12
0$
1%
#125000
1#
11
18
09
1:
15
04
13
02
1$
0%
#150000
0#
1"
01
10
17
08
#175000
1#
11
18
19
14
12
1%
#200000
0#
0"
0!
01
00
0/
06
07
08
09
0:
05
04
03
02
0$
0%
#225000
1#
11
18
19
14
12
1%
#250000
0#
1"
01
10
17
08
#275000
1#
11
18
09
1:
15
04
13
02
1$
0%
#300000
0#
0"
1!
01
00
1/
16
07
08
19
0:
05
14
03
12
0$
1%
#325000
1#
11
18
09
1:
15
04
13
02
1$
0%
#350000
0#
1"
01
10
17
08
#375000
1#
11
18
19
14
12
1%
#400000
0#
0"
0!
01
00
0/
06
07
08
09
0:
05
04
03
02
0$
0%
#425000
1#
11
18
19
14
12
1%
#450000
0#
1"
01
10
17
08
#475000
1#
11
18
09
1:
15
04
13
02
1$
0%
#500000
0#
0"
1!
01
00
1/
16
07
08
19
0:
05
14
03
12
0$
1%
#525000
1#
11
18
09
1:
15
04
13
02
1$
0%
#550000
0#
1"
01
10
17
08
#575000
1#
11
18
19
14
12
1%
#600000
0#
0"
0!
01
00
0/
06
07
08
09
0:
05
04
03
02
0$
0%
#625000
1#
11
18
19
14
12
1%
#650000
0#
1"
01
10
17
08
#675000
1#
11
18
09
1:
15
04
13
02
1$
0%
#700000
0#
0"
1!
01
00
1/
16
07
08
19
0:
05
14
03
12
0$
1%
#725000
1#
11
18
09
1:
15
04
13
02
1$
0%
#750000
0#
1"
01
10
17
08
#775000
1#
11
18
19
14
12
1%
#800000
0#
0"
0!
01
00
0/
06
07
08
09
0:
05
04
03
02
0$
0%
#825000
1#
11
18
19
14
12
1%
#850000
0#
1"
01
10
17
08
#875000
1#
11
18
09
1:
15
04
13
02
1$
0%
#900000
0#
0"
1!
01
00
1/
16
07
08
19
0:
05
14
03
12
0$
1%
#925000
1#
11
18
09
1:
15
04
13
02
1$
0%
#950000
0#
1"
01
10
17
08
#975000
1#
11
18
19
14
12
1%
