Seven_Segment_Display/simulation/qsim/Seven_Segment_Display.msim.vcd
$comment
	File created using the following command:
		vcd file Seven_Segment_Display.msim.vcd -direction
$end
$date
	Fri May 22 01:57:28 2020
$end
$version
	ModelSim Version 10.5b
$end
$timescale
	1ps
$end

$scope module seven_segment_display_vhd_vec_tst $end
$var wire 1 ! BCDNos [3] $end
$var wire 1 " BCDNos [2] $end
$var wire 1 # BCDNos [1] $end
$var wire 1 $ BCDNos [0] $end
$var wire 1 % DisplayLEDs [6] $end
$var wire 1 & DisplayLEDs [5] $end
$var wire 1 ' DisplayLEDs [4] $end
$var wire 1 ( DisplayLEDs [3] $end
$var wire 1 ) DisplayLEDs [2] $end
$var wire 1 * DisplayLEDs [1] $end
$var wire 1 + DisplayLEDs [0] $end

$scope module i1 $end
$var wire 1 , gnd $end
$var wire 1 - vcc $end
$var wire 1 . unknown $end
$var wire 1 / devoe $end
$var wire 1 0 devclrn $end
$var wire 1 1 devpor $end
$var wire 1 2 ww_devoe $end
$var wire 1 3 ww_devclrn $end
$var wire 1 4 ww_devpor $end
$var wire 1 5 ww_BCDNos [3] $end
$var wire 1 6 ww_BCDNos [2] $end
$var wire 1 7 ww_BCDNos [1] $end
$var wire 1 8 ww_BCDNos [0] $end
$var wire 1 9 ww_DisplayLEDs [6] $end
$var wire 1 : ww_DisplayLEDs [5] $end
$var wire 1 ; ww_DisplayLEDs [4] $end
$var wire 1 < ww_DisplayLEDs [3] $end
$var wire 1 = ww_DisplayLEDs [2] $end
$var wire 1 > ww_DisplayLEDs [1] $end
$var wire 1 ? ww_DisplayLEDs [0] $end
$var wire 1 @ \DisplayLEDs[0]~output_o\ $end
$var wire 1 A \DisplayLEDs[1]~output_o\ $end
$var wire 1 B \DisplayLEDs[2]~output_o\ $end
$var wire 1 C \DisplayLEDs[3]~output_o\ $end
$var wire 1 D \DisplayLEDs[4]~output_o\ $end
$var wire 1 E \DisplayLEDs[5]~output_o\ $end
$var wire 1 F \DisplayLEDs[6]~output_o\ $end
$var wire 1 G \BCDNos[0]~input_o\ $end
$var wire 1 H \BCDNos[2]~input_o\ $end
$var wire 1 I \BCDNos[1]~input_o\ $end
$var wire 1 J \BCDNos[3]~input_o\ $end
$var wire 1 K \Mux6~0_combout\ $end
$var wire 1 L \Mux5~0_combout\ $end
$var wire 1 M \Mux4~0_combout\ $end
$var wire 1 N \Mux3~0_combout\ $end
$var wire 1 O \Mux2~0_combout\ $end
$var wire 1 P \Mux1~0_combout\ $end
$var wire 1 Q \Mux0~0_combout\ $end
$var wire 1 R \ALT_INV_Mux0~0_combout\ $end
$var wire 1 S \ALT_INV_Mux1~0_combout\ $end
$var wire 1 T \ALT_INV_Mux2~0_combout\ $end
$var wire 1 U \ALT_INV_Mux3~0_combout\ $end
$var wire 1 V \ALT_INV_Mux4~0_combout\ $end
$var wire 1 W \ALT_INV_Mux5~0_combout\ $end
$upscope $end
$upscope $end
$enddefinitions $end
#0
$dumpvars
0,
1-
x.
1/
10
11
12
13
14
0@
0A
0B
0C
0D
0E
0F
xG
xH
xI
xJ
xK
xL
xM
xN
xO
xP
xQ
xR
xS
xT
xU
xV
xW
0!
0"
0#
0$
0%
0&
0'
0(
0)
0*
0+
05
06
07
08
09
0:
0;
0<
0=
0>
0?
$end
#679
0H
0I
#681
0G
0J
#2077
0O
1T
#2450
0K
0P
1S
#2675
0M
1V
#2676
0L
1W
#2703
0Q
0N
1U
1R
#3671
x@
x?
x+
#3762
xB
x=
x)
#3802
xC
x<
x(
#3861
xA
x>
x*
#4179
xF
x9
x%
#5110
xD
x;
x'
#5564
xE
x:
x&
#6083
0@
0?
0+
#6437
1B
1=
1)
#6488
1C
1<
1(
#6537
1A
1>
1*
#6882
1F
19
1%
#7154
1D
1;
1'
#8014
1E
1:
1&
#50000
1$
18
#50516
1G
#52636
1M
1L
0W
0V
#52649
1Q
1N
0U
0R
#56392
0B
0=
0)
#56482
0C
0<
0(
#56527
0A
0>
0*
#56803
0F
09
0%
#100000
0$
1#
08
17
#100514
1I
#100681
0G
#102086
1K
#102089
0N
1U
#102090
0Q
1R
#102665
1O
0T
#102675
0M
1V
#105757
1@
1?
1+
#105874
1C
1<
1(
#106269
1F
19
1%
#106437
1B
1=
1)
#107799
0D
0;
0'
#150000
1$
18
#150516
1G
#152616
0O
1T
#152636
1M
0V
#156392
0B
0=
0)
#157693
1D
1;
1'
#200000
0$
0#
1"
08
07
16
#200514
1H
#200679
0I
#200681
0G
#202169
0K
#202173
1Q
0R
#202174
1N
0U
#202301
1P
0S
#202302
1K
#202316
0L
1W
#202322
0N
1U
#202323
0Q
1R
#202698
1Q
1N
0U
0R
#205802
0@
0?
0+
#205973
1@
1?
1+
#206007
0C
0<
0(
#206107
1C
1<
1(
#206177
1A
1>
1*
#206327
0F
09
0%
#206502
1F
19
1%
#206531
0C
0<
0(
#206852
0F
09
0%
#207739
0E
0:
0&
#250000
1$
18
#250516
1G
#252654
0Q
0N
1U
1R
#256439
1C
1<
1(
#256833
1F
19
1%
#300000
0$
1#
08
17
#300514
1I
#300681
0G
#302084
0K
#302087
1L
0W
#302090
1N
0U
#302091
0P
1S
#302675
0M
1V
#302676
0L
1W
#302682
1P
0S
#302685
1K
#302703
0N
1U
#305717
0@
0?
0+
#305923
0C
0<
0(
#305978
0A
0>
0*
#306356
1@
1?
1+
#306437
1B
1=
1)
#306488
1C
1<
1(
#306537
1A
1>
1*
#307655
1E
1:
1&
#308120
0E
0:
0&
#350000
1$
18
#350516
1G
#352636
1M
1L
0W
0V
#352645
0K
#352649
1N
0P
1S
0U
#356278
0@
0?
0+
#356392
0B
0=
0)
#356482
0C
0<
0(
#356527
0A
0>
0*
#358213
1E
1:
1&
#400000
0$
0#
0"
1!
08
07
06
15
#400516
1J
#400679
0H
0I
#400681
0G
#401969
1Q
0R
#401970
1P
1O
0T
0S
#402433
0O
1T
#402442
1K
#402450
0P
1S
#402456
0L
1W
#402464
0Q
0N
1U
1R
#402675
0M
1V
#406113
1@
1?
1+
#406123
0F
09
0%
#406249
1C
1<
1(
#406317
1A
1>
1*
#406437
1B
1=
1)
#406643
1F
19
1%
#407104
0D
0;
0'
#407408
0E
0:
0&
#407510
1D
1;
1'
#408014
1E
1:
1&
#450000
1$
18
#450516
1G
#452636
1M
0V
#456392
0B
0=
0)
#500000
0$
1#
08
17
#500514
1I
#500681
0G
#502084
0K
#502087
1L
0W
#502089
1Q
0R
#502090
1N
1P
0S
0U
#502093
1O
0T
#505717
0@
0?
0+
#505923
0C
0<
0(
#505978
0A
0>
0*
#506243
0F
09
0%
#507227
0D
0;
0'
#507528
0E
0:
0&
#550000
1$
18
#550516
1G
#600000
0$
0#
1"
08
07
16
#600514
1H
#600679
0I
#600681
0G
#602170
0L
1W
#602171
1K
0P
1S
#602173
0N
1U
#602174
0Q
1R
#602175
0O
1T
#602282
1O
0T
#602301
1P
0S
#602310
0K
#602317
1L
0W
#602323
1N
0U
#602324
1Q
0R
#605842
1@
1?
1+
#605943
0@
0?
0+
#605958
1C
1<
1(
#606031
1A
1>
1*
#606156
0C
0<
0(
#606208
0A
0>
0*
#606353
1F
19
1%
#606478
0F
09
0%
#607252
1D
1;
1'
#607416
0D
0;
0'
#607735
1E
1:
1&
#607739
0E
0:
0&
#650000
1$
18
#650516
1G
#700000
0$
1#
08
17
#700514
1I
#700681
0G
#750000
1$
18
#750516
1G
#800000
0$
0#
0"
0!
08
07
06
05
#800679
0H
0I
#800681
0J
0G
#802071
0L
1W
#802075
0N
1U
#802076
0Q
1R
#802077
0O
1T
#802081
1K
#802450
0P
0K
1S
#802457
1L
0W
#802465
1Q
1N
0U
0R
#802675
0M
1V
#802676
0L
1W
#802703
0N
0Q
1R
1U
#805752
1@
1?
1+
#805860
1C
1<
1(
#805932
1A
1>
1*
#806083
0@
0?
0+
#806255
1F
19
1%
#806298
0C
0<
0(
#806348
0A
0>
0*
#806437
1B
1=
1)
#806488
1C
1<
1(
#806537
1A
1>
1*
#806619
0F
09
0%
#806882
1F
19
1%
#807154
1D
1;
1'
#808014
1E
1:
1&
#850000
1$
18
#850516
1G
#852636
1M
1L
0W
0V
#852649
1Q
1N
0U
0R
#856392
0B
0=
0)
#856482
0C
0<
0(
#856527
0A
0>
0*
#856803
0F
09
0%
#900000
0$
1#
08
17
#900514
1I
#900681
0G
#902086
1K
#902089
0N
1U
#902090
0Q
1R
#902665
1O
0T
#902675
0M
1V
#905757
1@
1?
1+
#905874
1C
1<
1(
#906269
1F
19
1%
#906437
1B
1=
1)
#907799
0D
0;
0'
#950000
1$
18
#950516
1G
#952616
0O
1T
#952636
1M
0V
#956392
0B
0=
0)
#957693
1D
1;
1'
